<svg width="82" height="83" viewBox="0 0 82 83" fill="none" xmlns="http://www.w3.org/2000/svg">
<path d="M56.375 32.2684L25.625 14.5359" stroke="#FFA903" stroke-width="5" stroke-linecap="round" stroke-linejoin="round"/>
<path d="M71.75 54.8184V27.4851C71.7488 26.2867 71.4324 25.1098 70.8328 24.0724C70.2331 23.0349 69.3711 22.1734 68.3333 21.5742L44.4167 7.90756C43.3779 7.30781 42.1995 6.99207 41 6.99207C39.8005 6.99207 38.6221 7.30781 37.5833 7.90756L13.6667 21.5742C12.6289 22.1734 11.7669 23.0349 11.1672 24.0724C10.5676 25.1098 10.2512 26.2867 10.25 27.4851V54.8184C10.2512 56.0167 10.5676 57.1936 11.1672 58.2311C11.7669 59.2685 12.6289 60.1301 13.6667 60.7292L37.5833 74.3959C38.6221 74.9956 39.8005 75.3114 41 75.3114C42.1995 75.3114 43.3779 74.9956 44.4167 74.3959L68.3333 60.7292C69.3711 60.1301 70.2331 59.2685 70.8328 58.2311C71.4324 57.1936 71.7488 56.0167 71.75 54.8184Z" stroke="#FFA903" stroke-width="5" stroke-linecap="round" stroke-linejoin="round"/>
<path d="M11.1725 23.9317L41 41.1859L70.8275 23.9317" stroke="#FFA903" stroke-width="5" stroke-linecap="round" stroke-linejoin="round"/>
<path d="M41 75.5917V41.1517" stroke="#FFA903" stroke-width="5" stroke-linecap="round" stroke-linejoin="round"/>
</svg>
