<svg width="129" height="92" viewBox="0 0 129 92" fill="none" xmlns="http://www.w3.org/2000/svg">
<path d="M79.375 41.2807L48.625 23.5482" stroke="#FFA903" stroke-width="5" stroke-linecap="round" stroke-linejoin="round"/>
<path d="M94.75 63.8307V36.4974C94.7488 35.2991 94.4325 34.1222 93.8328 33.0847C93.2331 32.0472 92.3711 31.1857 91.3334 30.5866L67.4167 16.9199C66.3779 16.3201 65.1995 16.0044 64 16.0044C62.8005 16.0044 61.6222 16.3201 60.5834 16.9199L36.6667 30.5866C35.6289 31.1857 34.767 32.0472 34.1673 33.0847C33.5676 34.1222 33.2513 35.2991 33.25 36.4974V63.8307C33.2513 65.029 33.5676 66.2059 34.1673 67.2434C34.767 68.2809 35.6289 69.1424 36.6667 69.7416L60.5834 83.4082C61.6222 84.008 62.8005 84.3237 64 84.3237C65.1995 84.3237 66.3779 84.008 67.4167 83.4082L91.3334 69.7416C92.3711 69.1424 93.2331 68.2809 93.8328 67.2434C94.4325 66.2059 94.7488 65.029 94.75 63.8307Z" stroke="#FFA903" stroke-width="5" stroke-linecap="round" stroke-linejoin="round"/>
<path d="M34.1725 32.944L64 50.1982L93.8275 32.944" stroke="#FFA903" stroke-width="5" stroke-linecap="round" stroke-linejoin="round"/>
<path d="M64 84.6041V50.1641" stroke="#FFA903" stroke-width="5" stroke-linecap="round" stroke-linejoin="round"/>
<path d="M64 8.66418V2.66418" stroke="#FFA903" stroke-width="5" stroke-linecap="round" stroke-linejoin="round"/>
<path d="M34 14.6642L28 6.66419" stroke="#FFA903" stroke-width="5" stroke-linecap="round" stroke-linejoin="round"/>
<path d="M91.4645 16.1998L98.5355 9.12876" stroke="#FFA903" stroke-width="5" stroke-linecap="round" stroke-linejoin="round"/>
<path d="M126 35.1641L107.6 35.1641" stroke="#FFA903" stroke-width="5" stroke-linecap="round" stroke-linejoin="round"/>
<path d="M21.4 35.1641L2.99999 35.1641" stroke="#FFA903" stroke-width="5" stroke-linecap="round" stroke-linejoin="round"/>
</svg>
